{
    "expect_event": [
        {"$schema":"http://json-schema.org/draft-04/schema#",
         "type":"object",
         "properties":{
            "category_id":{"type":"string"},"concern_id":{"type":"string","enum":["6215497900554717698"]},
            "refer":{"enum":["1",1]},"nt":{"type":"integer","enum":[4]},
            "category":{"type":"string","enum":["umeng"]},"tag":{"type":"string","enum":["category"]},
            "label":{"type":"string","enum":["enter_click_movie"]},"type":{"type":"string"}
         },
        "required":["concern_id","category","tag","label"]
         },
        {"$schema":"http://json-schema.org/draft-04/schema#",
         "type":"object",
         "properties":{
             "category_name":{"type":"string", "enum":["movie"]},
             "category": {"enum":["event_v3"]},
             "enter_from": {"type":"string", "enum":["__all__"]},
             "enter_type":{"type":"string","enum":["click"]},
             "with_tips":{"type":"integer","enum":[1,0]},
             "concern_id":{"type":"string"},
             "refer":{"enum":["1",1]},
             "_event_v3": {"enum": ["1", 1]},
             "tag":{"type":"string","enum":["enter_category"]}
         },
        "required":["category","category_name","enter_type","refer","tag","enter_from","concern_id"]
         }],
    "case": "点击顶部频道名进入频道（不包括推荐频道）",
    "status": "ok",
    "platform": 2
}